<?xml version="1.0" standalone="no"?>
<!DOCTYPE svg PUBLIC "-//W3C//DTD SVG 1.1//EN" "http://www.w3.org/Graphics/SVG/1.1/DTD/svg11.dtd" >
<svg xmlns="http://www.w3.org/2000/svg">
<metadata>Generated by IcoMoon</metadata>
<defs>
<font id="icomoon" horiz-adv-x="1024">
<font-face units-per-em="1024" ascent="960" descent="-64" />
<missing-glyph horiz-adv-x="1024" />
<glyph unicode="&#x20;" horiz-adv-x="512" d="" />
<glyph unicode="&#xe900;" glyph-name="chat-speech-bubbles" d="M413.75 738.612c-228.517 0-413.75-142.457-413.75-318.269 0-86.187 44.621-164.545 117.059-221.834-4.201-58.434-18.269-129.918-59.007-168.428 81.095 0 163.972 50.796 216.36 90.516 43.539-11.967 90.389-18.523 139.338-18.523 228.517 0 413.75 142.394 413.75 318.269 0 175.812-185.233 318.269-413.75 318.269zM963.72 389.343c34.819 46.531 54.742 100.637 54.742 158.307 0 175.812-185.233 318.269-413.75 318.269-100.573 0-192.744-27.626-264.418-73.457 33.737 6.365 69.001 9.803 105.284 9.803 246.086 0 445.577-156.78 445.577-350.096 0-76.194-30.872-146.786-83.514-204.138 52.26-39.72 135.264-90.643 216.36-90.643-57.67 54.742-61.808 176.067-60.28 231.955z" />
<glyph unicode="&#xe901;" glyph-name="time" d="M512 960c-282.317 0-512-229.683-512-512s229.683-512 512-512 512 229.683 512 512-229.683 512-512 512zM512-29.867c-263.492 0-477.867 214.374-477.867 477.867s214.374 477.867 477.867 477.867 477.867-214.374 477.867-477.867-214.374-477.867-477.867-477.867zM512 857.6c-9.421 0-17.067-7.629-17.067-17.067v-392.533h-256c-9.421 0-17.067-7.629-17.067-17.067s7.646-17.067 17.067-17.067h273.067c9.421 0 17.067 7.629 17.067 17.067v409.6c0 9.438-7.646 17.067-17.067 17.067z" />
<glyph unicode="&#xe902;" glyph-name="close-envelope" d="M512 301.714l-126.683 110.885-362.203-310.491c13.166-12.215 30.939-19.822 50.542-19.822h876.69c19.529 0 37.23 7.607 50.322 19.822l-361.984 310.491-126.683-110.885zM1000.887 793.893c-13.166 12.288-30.866 19.822-50.542 19.822h-876.69c-19.529 0-37.23-7.607-50.395-19.968l488.741-418.889 488.887 419.035zM0 749.495v-607.671l353.499 300.398zM670.501 442.222l353.499-300.398v607.89z" />
<glyph unicode="&#xe903;" glyph-name="instagram-social-network-logo-of-photo-camera" d="M131.434 960h761.132c72.283 0 131.424-53.516 131.424-131.424v-761.153c0-77.908-59.141-131.424-131.424-131.424h-761.132c-72.304 0-131.434 53.516-131.434 131.424v761.153c0 77.908 59.13 131.424 131.434 131.424v0zM745.939 846.229c-25.359 0-46.082-20.733-46.082-46.103v-110.343c0-25.359 20.723-46.103 46.082-46.103h115.737c25.359 0 46.103 20.744 46.103 46.103v110.343c0 25.37-20.744 46.103-46.103 46.103h-115.737zM908.263 526.954h-90.125c8.527-27.841 13.142-57.332 13.142-87.844 0-170.325-142.526-308.393-318.308-308.393-175.771 0-318.276 138.068-318.276 308.393 0 30.532 4.605 60.013 13.142 87.844h-94.047v-432.552c0-22.384 18.315-40.71 40.71-40.71h713.073c22.395 0 40.71 18.315 40.71 40.71v432.552h-0.021zM512.962 649.493c-113.571 0-205.652-89.21-205.652-199.27s92.081-199.27 205.652-199.27c113.582 0 205.673 89.21 205.673 199.27s-92.081 199.27-205.673 199.27z" />
<glyph unicode="&#xe904;" glyph-name="instagram" d="M602.544 513.776c-20.301 28.422-53.596 47.099-90.95 47.099s-70.649-18.677-90.95-47.099c-12.993-18.677-21.113-41.415-21.113-65.776 0-61.716 50.347-112.063 112.063-112.063s112.063 50.347 112.063 112.063c0 24.362-8.121 47.099-21.113 65.776zM673.193 512.964c8.121-16.241 12.993-42.227 12.993-64.964 0-95.822-77.957-174.592-174.592-174.592s-174.592 77.957-174.592 174.592c0 23.55 4.872 48.723 12.993 64.964h-98.259v-260.669c0-34.106 30.046-64.152 64.152-64.152h391.41c34.106 0 64.152 30.046 64.152 64.152v260.669h-98.259zM742.217 693.24h-94.198v-108.003h107.191v108.815zM766.579 959.594h-509.97c-141.297 0-256.609-115.312-256.609-256.609v-510.782c0-140.485 115.312-255.797 256.609-255.797h510.782c141.297 0 256.609 115.312 256.609 256.609v509.97c-0.812 141.297-116.124 256.609-257.421 256.609zM828.295 513.776v0-261.481c0-68.213-52.784-120.996-120.996-120.996h-391.41c-68.213 0-120.996 52.784-120.996 120.996v391.41c0 68.213 52.784 120.996 120.996 120.996h391.41c68.213 0 120.996-52.784 120.996-120.996v-129.929z" />
<glyph unicode="&#xe905;" glyph-name="twitter" d="M382.023 27.914c-44.281 0-89.859 3.586-135.711 10.773-80.758 12.672-162.508 54.914-185.641 67.563l-60.672 33.172 65.688 21.602c71.805 23.609 115.484 38.258 169.555 61.195-54.141 26.219-95.867 73.383-115.953 134.352l-15.281 46.391 12.531-1.914c-11.883 11.977-21.266 24.133-28.539 35.188-25.867 39.289-39.563 87.297-36.648 128.438l2.875 40.492 24.242-9.391c-10.227 19.313-17.617 39.938-21.961 61.555-10.586 52.719-1.727 108.727 24.953 157.703l21.117 38.766 28.242-33.922c89.32-107.297 202.453-170.945 336.727-189.578-5.484 37.805-1.375 74.289 12.227 106.992 15.836 38.078 44.008 70.367 81.445 93.383 41.578 25.555 92 37.938 141.977 34.867 53.023-3.258 101.164-23.125 139.398-57.492 18.672 4.852 32.43 10.031 51.023 17.031 11.188 4.211 23.875 8.992 39.75 14.461l58.5 20.156-38.148-108.953c2.516 0.211 5.109 0.391 7.82 0.508l62.469 2.828-36.922-50.461c-2.117-2.891-2.656-3.711-3.406-4.844-2.977-4.484-6.68-10.063-57.359-77.734-12.688-16.945-19.023-39.016-17.844-62.156 4.492-87.938-6.297-167.5-32.086-236.469-24.391-65.25-62.188-121.234-112.328-166.398-62.047-55.875-141.164-94.133-235.164-113.695-46.109-9.594-95.625-14.406-146.875-14.406z" />
<glyph unicode="&#xe906;" glyph-name="facebook-logo" d="M767.965 959.787l-132.79 0.213c-149.185 0-245.595-98.913-245.595-252.008v-116.192h-133.514c-11.537 0-20.88-9.353-20.88-20.891v-168.35c0-11.537 9.353-20.88 20.88-20.88h133.514v-424.8c0-11.537 9.343-20.88 20.88-20.88h174.198c11.537 0 20.88 9.353 20.88 20.88v424.8h156.109c11.537 0 20.88 9.343 20.88 20.88l0.064 168.35c0 5.54-2.205 10.845-6.115 14.765s-9.236 6.125-14.776 6.125h-156.163v98.498c0 47.342 11.282 71.375 72.952 71.375l89.453 0.032c11.527 0 20.869 9.353 20.869 20.88v156.322c0 11.516-9.332 20.859-20.848 20.88z" />
<glyph unicode="&#xe907;" glyph-name="reload" d="M964.39 507.608c0 249.45-202.94 452.392-452.388 452.392s-452.392-202.942-452.392-452.392c0-14.818 12.014-26.832 26.832-26.832s26.832 12.016 26.832 26.832c0 219.86 178.868 398.726 398.726 398.726s398.726-178.868 398.726-398.726c0-219.856-178.868-398.724-398.726-398.724h-46.552l66.564 74.51c9.874 11.050 8.916 28.014-2.134 37.888s-28.016 8.914-37.888-2.136l-95.152-106.51c-15.576-17.436-15.576-43.732 0-61.168l95.152-106.51c5.302-5.936 12.644-8.956 20.020-8.956 6.362 0 12.75 2.252 17.868 6.82 11.052 9.874 12.008 26.838 2.134 37.888l-66.564 74.51h46.552c249.45 0 452.39 202.942 452.39 452.388z" />
<glyph unicode="&#xe908;" glyph-name="menu" d="M982.636 489.364h-941.272c-22.844 0-41.364-18.518-41.364-41.364s18.52-41.364 41.364-41.364h941.272c22.846 0 41.364 18.518 41.364 41.364 0 22.844-18.518 41.364-41.364 41.364zM982.636 803.122h-941.272c-22.844 0-41.364-18.52-41.364-41.364s18.52-41.364 41.364-41.364h941.272c22.846 0 41.364 18.52 41.364 41.364s-18.518 41.364-41.364 41.364zM982.636 175.606h-941.272c-22.844 0-41.364-18.518-41.364-41.364s18.52-41.364 41.364-41.364h941.272c22.846 0 41.364 18.518 41.364 41.364s-18.518 41.364-41.364 41.364z" />
<glyph unicode="&#xe909;" glyph-name="search" d="M999.602-31.269l-287.271 298.755c73.273 73.485 118.667 174.791 118.667 286.517 0 223.878-182.118 405.996-405.996 405.996s-405.996-182.118-405.996-405.996 182.118-405.996 405.996-405.996c98.27 0 188.46 35.128 258.755 93.418l287.967-299.49c3.789-3.963 8.855-5.935 13.939-5.935 4.833 0 9.647 1.798 13.398 5.394 7.695 7.405 7.927 19.642 0.541 27.337zM425.001 186.674c-202.553 0-367.33 164.776-367.33 367.33s164.776 367.33 367.33 367.33 367.33-164.776 367.33-367.33-164.796-367.33-367.33-367.33z" />
<glyph unicode="&#xe90a;" glyph-name="user" d="M874.040 298.040c-55.766 55.764-122.142 97.046-194.562 122.036 77.564 53.422 128.522 142.828 128.522 243.924 0 163.214-132.786 296-296 296s-296-132.786-296-296c0-101.096 50.958-190.502 128.524-243.924-72.42-24.99-138.796-66.272-194.562-122.036-96.704-96.706-149.962-225.28-149.962-362.040h80c0 238.206 193.794 432 432 432s432-193.794 432-432h80c0 136.76-53.258 265.334-149.96 362.040zM512 448c-119.102 0-216 96.896-216 216s96.898 216 216 216c119.102 0 216-96.896 216-216s-96.898-216-216-216z" />
<glyph unicode="&#xe90b;" glyph-name="heart" d="M941.29 814.55c-53.62 53.62-124.608 82.927-200.371 82.927s-146.968-29.524-200.588-83.144l-28.004-28.004-28.438 28.438c-53.62 53.62-125.042 83.361-200.805 83.361-75.546 0-146.751-29.524-200.154-82.927-53.62-53.62-83.144-124.825-82.927-200.588 0-75.763 29.741-146.751 83.361-200.371l407.689-407.689c5.644-5.644 13.242-8.683 20.623-8.683s14.979 2.822 20.623 8.466l408.557 407.038c53.62 53.62 83.144 124.825 83.144 200.588 0.217 75.763-29.090 146.968-82.71 200.588zM899.609 454.837l-387.934-386.414-387.066 387.066c-42.549 42.549-65.994 98.992-65.994 159.125s23.228 116.576 65.777 158.907c42.332 42.332 98.774 65.777 158.69 65.777 60.133 0 116.793-23.445 159.342-65.994l49.062-49.062c11.506-11.506 29.958-11.506 41.464 0l48.627 48.627c42.549 42.549 99.209 65.994 159.125 65.994s116.358-23.445 158.907-65.777c42.549-42.549 65.777-98.992 65.777-159.125 0.217-60.133-23.228-116.576-65.777-159.125z" />
<glyph unicode="&#xe90c;" glyph-name="shopping-cart" d="M683 124.8c-45.8 0-81.4-37.6-81.4-83.4s37.6-83.4 81.4-83.4 81.4 37.6 81.4 83.4-37.6 83.4-81.4 83.4zM683-0.2c-23 0-39.6 18.8-39.6 41.8s18.8 41.8 39.6 41.8 39.6-18.8 39.6-41.8-18.8-41.8-39.6-41.8zM238.8 124.8c-45.8 0-81.4-37.6-81.4-83.4s37.6-83.4 81.4-83.4c45.8 0 81.4 37.6 81.4 83.4s-37.6 83.4-81.4 83.4zM238.8-0.2c-23 0-39.6 18.8-39.6 41.8s18.8 41.8 39.6 41.8c23 0 39.6-18.8 39.6-41.8 0-23.2-18.6-41.8-39.6-41.8zM879 938l-32.4-127.2h-818.4l151-447.4c-50.6-7.4-88.4-50.2-88.4-105.2 0-60.4 45.8-108.4 104.2-108.4h567.2v39.6h-567.2c-35.4 0-62.6 29.2-62.6 66.8s29.2 66.8 62.6 66.8h569.2l148 573.4h83.4v41.6h-116.6zM733 364.6h-510.8l-135.6 404.6h748.6l-102.2-404.6zM293 671.2h41.8v-235.6h-41.8v235.6zM441.2 671.2h41.8v-235.6h-41.8v235.6zM589.2 671.2h41.8v-235.6h-41.8v235.6z" />
<glyph unicode="&#xe90d;" glyph-name="back" d="M311.568 448.027l462.455 462.455c11.374 11.374 11.374 29.614 0 40.988s-29.614 11.374-40.988 0l-483.056-483.056c-11.374-11.374-11.374-29.614 0-40.988l483.056-482.842c5.58-5.58 13.090-8.584 20.387-8.584s14.807 2.79 20.387 8.584c11.374 11.374 11.374 29.614 0 40.988l-462.24 462.455z" />
</font></defs></svg>